…
## {html_document}
## <html lang="en">
## [1] <head>\n<meta http-equiv="Content-Type" content="text/html; charset=UTF-8 ...
## [2] <body class="container-fluid p-0 m-0">\r\n    <header><div class="">\r\n  ...

It is easier to extract data inside an HTML table, which is fortunately the case for the ranking. we will identify this table with html_element(), then convert it to a tibble with html_table()

ranking_2021 <- utmb_2021 %>%
    rvest::html_element(".table") %>% 
    rvest::html_table()

ranking_2021

## # A tibble: 1,526 x 7
##       `` Runner      Time   Score                         Age Gender Nationality
##    <int> <chr>       <chr>  <chr>                       <int> <chr>  <chr>      
##  1     1 D HAENE Fr~ 20:45~ "Become an ITRA member for~    36 H      FRA        
##  2     2 DUNAND PAL~ 20:58~ "Become an ITRA member for~    29 H      FRA        
##  3     3 BLANCHARD ~ 21:12~ "Become an ITRA member for~    34 H      FRA        
##  4     4 POMMERET L~ 21:38~ "Become an ITRA member for~    46 H      FRA        
##  5     5 GRANGIER G~ 21:52~ "Become an ITRA member for~    31 H      FRA        
##  6     6 Namberger ~ 22:22~ "Become an ITRA member for~    32 H      GER        
##  7     7 DAUWALTER ~ 22:30~ "Become an ITRA member for~    36 F      USA        
##  8     8 CURMER Gre~ 23:00~ "Become an ITRA member for~    31 H      FRA        
##  9     8 PAZOS Diego 23:00~ "Become an ITRA member for~    37 H      SUI        
## 10    10 CLEMENT Ma~ 23:08~ "Become an ITRA member for~    26 H      SUI        
## # ... with 1,516 more rows
…
ranking_2021

## # A tibble: 1,526 x 7
##     Year  Rank Runner                 Time       Age Gender Nationality
##    <dbl> <dbl> <chr>                  <chr>    <int> <chr>  <chr>      
##  1  2021     1 D HAENE Francois       20:45:59    36 Men    FRA        
##  2  2021     2 DUNAND PALLAZ Aurelien 20:58:31    29 Men    FRA        
##  3  2021     3 BLANCHARD Mathieu      21:12:43    34 Men    FRA        
##  4  2021     4 POMMERET Ludovic       21:38:44    46 Men    FRA        
##  5  2021     5 GRANGIER Germain       21:52:47    31 Men    FRA        
##  6  2021     6 Namberger Hannes       22:22:06    32 Men    GER        
##  7  2021     7 DAUWALTER Courtney     22:30:54    36 Women  USA        
##  8  2021     8 CURMER Gregoire        23:00:10    31 Men    FRA        
##  9  2021     8 PAZOS Diego            23:00:10    37 Men    SUI        
## 10  2021    10 CLEMENT Mathieu        23:08:05    26 Men    SUI        
## # ... with 1,516 more rows
…
