…
edges_list

## # A tibble: 982 x 3
##     from    to     n
##    <int> <int> <int>
##  1     1     1     0
##  2     1    10     1
##  3     2     2     0
##  4     2    12     2
##  5     3     3     0
##  6     4     4     0
##  7     4     5     1
##  8     5     5     0
##  9     6     6     0
## 10     7     7     0
## # ... with 972 more rows
…
