…
# Data frame with number of sights per bird type AND landscape
two <- birds%>%
  filter(bird_type %in% top)%>%
  group_by(bird_type,urban_rural)%>%
  summarise(tot_cat=sum(bird_count))%>%
  ungroup()%>%
  # Change name of NA to 'Unknown'
  mutate(urban_rural=case_when(
    is.na(urban_rural)~'Unknown',
    TRUE~urban_rural
  ))

two

## # A tibble: 30 x 3
##    bird_type         urban_rural tot_cat
##    <chr>             <chr>         <dbl>
##  1 Australian Magpie Rural            76
##  2 Australian Magpie Urban           186
##  3 Australian Magpie Unknown         262
##  4 Crimson Rosella   Rural            66
##  5 Crimson Rosella   Urban            89
##  6 Crimson Rosella   Unknown         155
##  7 Eastern Spinebill Rural            87
##  8 Eastern Spinebill Urban            66
##  9 Eastern Spinebill Unknown         153
## 10 Magpie-lark       Rural            33
## # ... with 20 more rows

Then we will use the previously created data frame (named one) to specify the position and text adjustment of the labels, merging it with our new data frame (named two).

two<-two%>%
  left_join(one, by="bird_type")%>%
  # Add two empty rows at the beginning of the data frame
  add_row(
    tot_cat=c(0,0),
    id=c(1,2),       # Specify id
    .before = 1
  )

two

## # A tibble: 32 x 7
##    bird_type         urban_rural tot_cat   tot    id angle hjust
##    <chr>             <chr>         <dbl> <dbl> <dbl> <dbl> <dbl>
##  1 <NA>              <NA>              0    NA     1    NA    NA
##  2 <NA>              <NA>              0    NA     2    NA    NA
##  3 Australian Magpie Rural            76   524    11   -45     1
##  4 Australian Magpie Urban           186   524    11   -45     1
##  5 Australian Magpie Unknown         262   524    11   -45     1
##  6 Crimson Rosella   Rural            66   310     5   -45     0
##  7 Crimson Rosella   Urban            89   310     5   -45     0
##  8 Crimson Rosella   Unknown         155   310     5   -45     0
##  9 Eastern Spinebill Rural            87   306     4   -15     0
## 10 Eastern Spinebill Urban            66   306     4   -15     0
## # ... with 22 more rows
…
